Exercises – Tidy time series & forecasting in R
…
Exercises

Time series data and patterns

Exercise 1

The pedestrian dataset contains hourly pedestrian counts from 2015-01-01 to 2016-12-31 at 4 sensors in the city of Melbourne.

The data is shown below:

# A tibble: 66,037 × 5
   Sensor         Date_Time           Date        Time Count
   <chr>          <dttm>              <date>     <int> <int>
 1 Birrarung Marr 2015-01-01 00:00:00 2015-01-01     0  1630
 2 Birrarung Marr 2015-01-01 01:00:00 2015-01-01     1   826
 3 Birrarung Marr 2015-01-01 02:00:00 2015-01-01     2   567
 4 Birrarung Marr 2015-01-01 03:00:00 2015-01-01     3   264
 5 Birrarung Marr 2015-01-01 04:00:00 2015-01-01     4   139
 6 Birrarung Marr 2015-01-01 05:00:00 2015-01-01     5    77
 7 Birrarung Marr 2015-01-01 06:00:00 2015-01-01     6    44
 8 Birrarung Marr 2015-01-01 07:00:00 2015-01-01     7    56
 9 Birrarung Marr 2015-01-01 08:00:00 2015-01-01     8   113
10 Birrarung Marr 2015-01-01 09:00:00 2015-01-01     9   166
# ℹ 66,027 more rows
…
