Tidy time series & forecasting in R – index
…
Evaluating models

# A tsibble: 160 x 6 [1Q]
# Key:       .model [2]
   .model     Quarter Trips .fitted .resid   .innov
   <chr>        <qtr> <dbl>   <dbl>  <dbl>    <dbl>
 1 ETS(Trips) 1998 Q1 6010.   5457.  554.   0.101  
 2 ETS(Trips) 1998 Q2 4795.   4824.  -28.6 -0.00594
 3 ETS(Trips) 1998 Q3 4317.   4370.  -52.8 -0.0121 
 4 ETS(Trips) 1998 Q4 4675.   4841. -167.  -0.0344 
 5 ETS(Trips) 1999 Q1 5304.   5599. -295.  -0.0526 
 6 ETS(Trips) 1999 Q2 4562.   4545.   16.8  0.00369
 7 ETS(Trips) 1999 Q3 3784.   4139. -356.  -0.0859 
 8 ETS(Trips) 1999 Q4 4201.   4395. -194.  -0.0441 
 9 ETS(Trips) 2000 Q1 5567.   5055.  512.   0.101  
10 ETS(Trips) 2000 Q2 4502.   4468.   33.8  0.00757
# ℹ 150 more rows
…
Residual diagnostics

augment(fit)

# A tsibble: 160 x 6 [1Q]
# Key:       .model [2]
   .model     Quarter Trips .fitted .resid   .innov
   <chr>        <qtr> <dbl>   <dbl>  <dbl>    <dbl>
 1 ETS(Trips) 1998 Q1 6010.   5457.  554.   0.101  
 2 ETS(Trips) 1998 Q2 4795.   4824.  -28.6 -0.00594
 3 ETS(Trips) 1998 Q3 4317.   4370.  -52.8 -0.0121 
 4 ETS(Trips) 1998 Q4 4675.   4841. -167.  -0.0344 
 5 ETS(Trips) 1999 Q1 5304.   5599. -295.  -0.0526 
 6 ETS(Trips) 1999 Q2 4562.   4545.   16.8  0.00369
 7 ETS(Trips) 1999 Q3 3784.   4139. -356.  -0.0859 
 8 ETS(Trips) 1999 Q4 4201.   4395. -194.  -0.0441 
 9 ETS(Trips) 2000 Q1 5567.   5055.  512.   0.101  
10 ETS(Trips) 2000 Q2 4502.   4468.   33.8  0.00757
# ℹ 150 more rows
…
