Tidy time series & forecasting in R â€“ index
…
Producing forecasts

Forecasts are made using forecast():

pbs_scripts |> 
  model(
    NAIVE(Scripts),
    SNAIVE(Scripts),
    NAIVE(Scripts ~ drift()),
    SNAIVE(Scripts ~ drift()),
  ) |> 
  forecast(h = "2 years")

# A fable: 96 x 4 [1M]
# Key:     .model [4]
   .model            Month             Scripts    .mean
   <chr>             <mth>              <dist>    <dbl>
 1 NAIVE(Scripts) 2008 Jul N(1.2e+07, 2.2e+12) 12123769
 2 NAIVE(Scripts) 2008 Aug N(1.2e+07, 4.4e+12) 12123769
 3 NAIVE(Scripts) 2008 Sep N(1.2e+07, 6.6e+12) 12123769
 4 NAIVE(Scripts) 2008 Oct N(1.2e+07, 8.8e+12) 12123769
 5 NAIVE(Scripts) 2008 Nov N(1.2e+07, 1.1e+13) 12123769
 6 NAIVE(Scripts) 2008 Dec N(1.2e+07, 1.3e+13) 12123769
 7 NAIVE(Scripts) 2009 Jan N(1.2e+07, 1.5e+13) 12123769
 8 NAIVE(Scripts) 2009 Feb N(1.2e+07, 1.8e+13) 12123769
 9 NAIVE(Scripts) 2009 Mar   N(1.2e+07, 2e+13) 12123769
10 NAIVE(Scripts) 2009 Apr N(1.2e+07, 2.2e+13) 12123769
# i 86 more rows
…
Producing forecasts

# A fable: 96 x 4 [1M]
# Key:     .model [4]
   .model            Month             Scripts    .mean
   <chr>             <mth>              <dist>    <dbl>
 1 NAIVE(Scripts) 2008 Jul N(1.2e+07, 2.2e+12) 12123769
 2 NAIVE(Scripts) 2008 Aug N(1.2e+07, 4.4e+12) 12123769
 3 NAIVE(Scripts) 2008 Sep N(1.2e+07, 6.6e+12) 12123769
 4 NAIVE(Scripts) 2008 Oct N(1.2e+07, 8.8e+12) 12123769
 5 NAIVE(Scripts) 2008 Nov N(1.2e+07, 1.1e+13) 12123769
 6 NAIVE(Scripts) 2008 Dec N(1.2e+07, 1.3e+13) 12123769
 7 NAIVE(Scripts) 2009 Jan N(1.2e+07, 1.5e+13) 12123769
 8 NAIVE(Scripts) 2009 Feb N(1.2e+07, 1.8e+13) 12123769
 9 NAIVE(Scripts) 2009 Mar   N(1.2e+07, 2e+13) 12123769
10 NAIVE(Scripts) 2009 Apr N(1.2e+07, 2.2e+13) 12123769
# i 86 more rows
…
